Inter R4SS Day 1A
…
Tibbles

Tibbles/data frames store tidy, rectangular data in R

library(palmerpenguins)
penguins
## # A tibble: 344 × 8
##    species island    bill_length_mm bill_depth_mm flipper_length_mm body_mass_g
##    <fct>   <fct>              <dbl>         <dbl>             <int>       <int>
##  1 Adelie  Torgersen           39.1          18.7               181        3750
##  2 Adelie  Torgersen           39.5          17.4               186        3800
##  3 Adelie  Torgersen           40.3          18                 195        3250
##  4 Adelie  Torgersen           NA            NA                  NA          NA
##  5 Adelie  Torgersen           36.7          19.3               193        3450
##  6 Adelie  Torgersen           39.3          20.6               190        3650
##  7 Adelie  Torgersen           38.9          17.8               181        3625
##  8 Adelie  Torgersen           39.2          19.6               195        4675
##  9 Adelie  Torgersen           34.1          18.1               193        3475
## 10 Adelie  Torgersen           42            20.2               190        4250
## # ℹ 334 more rows
## # ℹ 2 more variables: sex <fct>, year <int>

Data Files

We can also import a data file (e.g., CSV) into R as a tibble

library(tidyverse)
cereal <- read_csv("cereal.csv")
cereal
## # A tibble: 77 × 8
##    name                      mfr       type  calories sodium carbo sugars rating
##    <chr>                     <chr>     <chr>    <dbl>  <dbl> <dbl>  <dbl>  <dbl>
##  1 100% Bran                 Nabisco   cold        70    130   5        6   68.4
##  2 100% Natural Bran         Quaker O… cold       120     15   8        8   34.0
##  3 All-Bran                  Kelloggs  cold        70    260   7        5   59.4
##  4 All-Bran with Extra Fiber Kelloggs  cold        50    140   8        0   93.7
##  5 Almond Delight            Ralston … cold       110    200  14        8   34.4
##  6 Apple Cinnamon Cheerios   General … cold       110    180  10.5     10   29.5
##  7 Apple Jacks               Kelloggs  cold       110    125  11       14   33.2
##  8 Basic 4                   General … cold       130    210  18        8   37.0
##  9 Bran Chex                 Ralston … cold        90    200  15        6   49.1
## 10 Bran Flakes               Post      cold        90    210  13        5   53.3
## # ℹ 67 more rows
…
