Inter R4SS - Day 2A
…
Practice 2

Summarize the txhousing tibble to recreate the following tibble (where m_price is the mean of the median variable and s_price is the standard deviation of the median variable, both per city-year combination).

# A tibble: 736 × 4
   city     year m_price s_price
   <chr>   <int>   <dbl>   <dbl>
 1 Abilene  2000  66600    5714.
 2 Abilene  2001  70975    6331.
 3 Abilene  2002  68600    6756.
 4 Abilene  2003  71933.   5598.
 5 Abilene  2004  74867.   7892.
 6 Abilene  2005  87592.  10139.
 7 Abilene  2006 100292.   5187.
 8 Abilene  2007 103650   10931.
 9 Abilene  2008 107133.  10212.
10 Abilene  2009 108367.   9850.
# ℹ 726 more rows

Click here for the answer key

txhousing |> 
  summarize(
    m_price = mean(median),
    s_price = sd(median),
    .by = c(city, year)
  )
## # A tibble: 736 × 4
##    city     year m_price s_price
##    <chr>   <int>   <dbl>   <dbl>
##  1 Abilene  2000  66600    5714.
##  2 Abilene  2001  70975    6331.
##  3 Abilene  2002  68600    6756.
##  4 Abilene  2003  71933.   5598.
##  5 Abilene  2004  74867.   7892.
##  6 Abilene  2005  87592.  10139.
##  7 Abilene  2006 100292.   5187.
##  8 Abilene  2007 103650   10931.
##  9 Abilene  2008 107133.  10212.
## 10 Abilene  2009 108367.   9850.
## # ℹ 726 more rows

Practice 3

Use a grouped mutate to add a new variable to the txhousing tibble that shows the average number of sales for that city in that year. Select only the city, year, month, and sales variables, in addition to the newly created variable.

# A tibble: 8,602 × 5
   city     year month sales avg_sales
   <chr>   <int> <int> <dbl>     <dbl>
 1 Abilene  2000     1    72      115.
 2 Abilene  2000     2    98      115.
 3 Abilene  2000     3   130      115.
 4 Abilene  2000     4    98      115.
 5 Abilene  2000     5   141      115.
 6 Abilene  2000     6   156      115.
 7 Abilene  2000     7   152      115.
 8 Abilene  2000     8   131      115.
 9 Abilene  2000     9   104      115.
10 Abilene  2000    10   101      115.
# ℹ 8,592 more rows

Click here for the answer key

txhousing |> 
  mutate(
    avg_sales = mean(sales),
    .by = c(city, year)
  ) |> 
  select(city, year, month, sales, avg_sales)
## # A tibble: 8,602 × 5
##    city     year month sales avg_sales
##    <chr>   <int> <int> <dbl>     <dbl>
##  1 Abilene  2000     1    72      115.
##  2 Abilene  2000     2    98      115.
##  3 Abilene  2000     3   130      115.
##  4 Abilene  2000     4    98      115.
##  5 Abilene  2000     5   141      115.
##  6 Abilene  2000     6   156      115.
##  7 Abilene  2000     7   152      115.
##  8 Abilene  2000     8   131      115.
##  9 Abilene  2000     9   104      115.
## 10 Abilene  2000    10   101      115.
## # ℹ 8,592 more rows

Practice 4

Use tidy selection to extract all variables that have names ending with “_color” from the starwars tibble.

Use tidy selection to extract the name variable and all variables from the species variable to the last variable in the starwars tibble.

Click here for the answer key

Answer (a)

library(tidyverse)
starwars |> 
  select(ends_with("_color"))
## # A tibble: 87 × 3
##    hair_color    skin_color  eye_color
##    <chr>         <chr>       <chr>    
##  1 blond         fair        blue     
##  2 <NA>          gold        yellow   
##  3 <NA>          white, blue red      
##  4 none          white       yellow   
##  5 brown         light       brown    
##  6 brown, grey   light       blue     
##  7 brown         light       blue     
##  8 <NA>          white, red  red      
##  9 black         light       brown    
## 10 auburn, white fair        blue-gray
## # ℹ 77 more rows

Answer (b)

starwars |> 
  select(name, species:last_col())
## # A tibble: 87 × 5
##    name               species films     vehicles  starships
##    <chr>              <chr>   <list>    <list>    <list>   
##  1 Luke Skywalker     Human   <chr [5]> <chr [2]> <chr [2]>
##  2 C-3PO              Droid   <chr [6]> <chr [0]> <chr [0]>
##  3 R2-D2              Droid   <chr [7]> <chr [0]> <chr [0]>
##  4 Darth Vader        Human   <chr [4]> <chr [0]> <chr [1]>
##  5 Leia Organa        Human   <chr [5]> <chr [1]> <chr [0]>
##  6 Owen Lars          Human   <chr [3]> <chr [0]> <chr [0]>
##  7 Beru Whitesun lars Human   <chr [3]> <chr [0]> <chr [0]>
##  8 R5-D4              Droid   <chr [1]> <chr [0]> <chr [0]>
##  9 Biggs Darklighter  Human   <chr [1]> <chr [0]> <chr [1]>
## 10 Obi-Wan Kenobi     Human   <chr [6]> <chr [1]> <chr [5]>
## # ℹ 77 more rows
…
Use across() to summarize the median of every numeric variable in the diamonds tibble.

Click here for the answer key

Answer (a)

mpg |> 
  mutate(
    across(
      .cols = c(manufacturer, model), 
      .fns = str_to_upper
    )
  )
## # A tibble: 234 × 11
##    manufacturer model      displ  year   cyl trans drv     cty   hwy fl    class
##    <chr>        <chr>      <dbl> <int> <int> <chr> <chr> <int> <int> <chr> <chr>
##  1 AUDI         A4           1.8  1999     4 auto… f        18    29 p     comp…
##  2 AUDI         A4           1.8  1999     4 manu… f        21    29 p     comp…
##  3 AUDI         A4           2    2008     4 manu… f        20    31 p     comp…
##  4 AUDI         A4           2    2008     4 auto… f        21    30 p     comp…
##  5 AUDI         A4           2.8  1999     6 auto… f        16    26 p     comp…
##  6 AUDI         A4           2.8  1999     6 manu… f        18    26 p     comp…
##  7 AUDI         A4           3.1  2008     6 auto… f        18    27 p     comp…
##  8 AUDI         A4 QUATTRO   1.8  1999     4 manu… 4        18    26 p     comp…
##  9 AUDI         A4 QUATTRO   1.8  1999     4 auto… 4        16    25 p     comp…
## 10 AUDI         A4 QUATTRO   2    2008     4 manu… 4        20    28 p     comp…
## # ℹ 224 more rows
…
Practice 6

Add a new column to the diamonds tibble called volume that contains the rectangular volume of each diamond (i.e., the product or multiplication of the x, y, and z variables)

Add a new column to the diamonds tibble called mdim that contains the average dimension size of each diamond (i.e., the mean of the x, y, and z variables)

Click here for the answer key

Answer (a)

diamonds |> 
  mutate(volume = x * y * z)
## # A tibble: 53,940 × 11
##    carat cut       color clarity depth table price     x     y     z volume
##    <dbl> <ord>     <ord> <ord>   <dbl> <dbl> <int> <dbl> <dbl> <dbl>  <dbl>
##  1  0.23 Ideal     E     SI2      61.5    55   326  3.95  3.98  2.43   38.2
##  2  0.21 Premium   E     SI1      59.8    61   326  3.89  3.84  2.31   34.5
##  3  0.23 Good      E     VS1      56.9    65   327  4.05  4.07  2.31   38.1
##  4  0.29 Premium   I     VS2      62.4    58   334  4.2   4.23  2.63   46.7
##  5  0.31 Good      J     SI2      63.3    58   335  4.34  4.35  2.75   51.9
##  6  0.24 Very Good J     VVS2     62.8    57   336  3.94  3.96  2.48   38.7
##  7  0.24 Very Good I     VVS1     62.3    57   336  3.95  3.98  2.47   38.8
##  8  0.26 Very Good H     SI1      61.9    55   337  4.07  4.11  2.53   42.3
##  9  0.22 Fair      E     VS2      65.1    61   337  3.87  3.78  2.49   36.4
## 10  0.23 Very Good H     VS1      59.4    61   338  4     4.05  2.39   38.7
## # ℹ 53,930 more rows

Answer (b)

diamonds |> 
  mutate(mdim = rowMeans(pick(x, y, z)))
## # A tibble: 53,940 × 11
##    carat cut       color clarity depth table price     x     y     z  mdim
##    <dbl> <ord>     <ord> <ord>   <dbl> <dbl> <int> <dbl> <dbl> <dbl> <dbl>
##  1  0.23 Ideal     E     SI2      61.5    55   326  3.95  3.98  2.43  3.45
##  2  0.21 Premium   E     SI1      59.8    61   326  3.89  3.84  2.31  3.35
##  3  0.23 Good      E     VS1      56.9    65   327  4.05  4.07  2.31  3.48
##  4  0.29 Premium   I     VS2      62.4    58   334  4.2   4.23  2.63  3.69
##  5  0.31 Good      J     SI2      63.3    58   335  4.34  4.35  2.75  3.81
##  6  0.24 Very Good J     VVS2     62.8    57   336  3.94  3.96  2.48  3.46
##  7  0.24 Very Good I     VVS1     62.3    57   336  3.95  3.98  2.47  3.47
##  8  0.26 Very Good H     SI1      61.9    55   337  4.07  4.11  2.53  3.57
##  9  0.22 Fair      E     VS2      65.1    61   337  3.87  3.78  2.49  3.38
## 10  0.23 Very Good H     VS1      59.4    61   338  4     4.05  2.39  3.48
## # ℹ 53,930 more rows

Alternate Answer (b)

diamonds |> 
  # Create row identifier
  mutate(row_id = row_number()) |> 
  # Mutate while grouping by it
  mutate(
    mdim = mean(c(x, y, z)),
    .by = row_id
  )
## # A tibble: 53,940 × 12
##    carat cut      color clarity depth table price     x     y     z row_id  mdim
##    <dbl> <ord>    <ord> <ord>   <dbl> <dbl> <int> <dbl> <dbl> <dbl>  <int> <dbl>
##  1  0.23 Ideal    E     SI2      61.5    55   326  3.95  3.98  2.43      1  3.45
##  2  0.21 Premium  E     SI1      59.8    61   326  3.89  3.84  2.31      2  3.35
##  3  0.23 Good     E     VS1      56.9    65   327  4.05  4.07  2.31      3  3.48
##  4  0.29 Premium  I     VS2      62.4    58   334  4.2   4.23  2.63      4  3.69
##  5  0.31 Good     J     SI2      63.3    58   335  4.34  4.35  2.75      5  3.81
##  6  0.24 Very Go… J     VVS2     62.8    57   336  3.94  3.96  2.48      6  3.46
##  7  0.24 Very Go… I     VVS1     62.3    57   336  3.95  3.98  2.47      7  3.47
##  8  0.26 Very Go… H     SI1      61.9    55   337  4.07  4.11  2.53      8  3.57
##  9  0.22 Fair     E     VS2      65.1    61   337  3.87  3.78  2.49      9  3.38
## 10  0.23 Very Go… H     VS1      59.4    61   338  4     4.05  2.39     10  3.48
## # ℹ 53,930 more rows
…
