Inter R4SS - Day 3A
…
Practice 2

Reshape the billboard tibble (included in {tidyverse}) to a long format such that each row represents a single track’s ranking for a single week (variables: artist, track, date.entered, week, rank). For a challenge, remove the prefix from your final week variable and convert it into a numeric variable.

Click here for the answer key

billboard |> 
  pivot_longer(
    cols = starts_with("wk"), 
    names_to = "week", 
    values_to = "rank",
    names_prefix = "wk", # Challenge
    names_transform = parse_number # Challenge
  )
## # A tibble: 24,092 × 5
##    artist track                   date.entered  week  rank
##    <chr>  <chr>                   <date>       <dbl> <dbl>
##  1 2 Pac  Baby Don't Cry (Keep... 2000-02-26       1    87
##  2 2 Pac  Baby Don't Cry (Keep... 2000-02-26       2    82
##  3 2 Pac  Baby Don't Cry (Keep... 2000-02-26       3    72
##  4 2 Pac  Baby Don't Cry (Keep... 2000-02-26       4    77
##  5 2 Pac  Baby Don't Cry (Keep... 2000-02-26       5    87
##  6 2 Pac  Baby Don't Cry (Keep... 2000-02-26       6    94
##  7 2 Pac  Baby Don't Cry (Keep... 2000-02-26       7    99
##  8 2 Pac  Baby Don't Cry (Keep... 2000-02-26       8    NA
##  9 2 Pac  Baby Don't Cry (Keep... 2000-02-26       9    NA
## 10 2 Pac  Baby Don't Cry (Keep... 2000-02-26      10    NA
## # ℹ 24,082 more rows
…
All three tables are connected via the playerID variable.

Answer (b)

library(tidyverse)
library(Lahman) # must be installed first

joined_data <- 
  inner_join(People, Salaries, by = "playerID") |>  
  select(playerID, nameFirst, nameLast, bats, yearID, teamID, salary) |>
  as_tibble() |> 
  print()

# A tibble: 26,428 × 7
   playerID  nameFirst nameLast bats  yearID teamID  salary
   <chr>     <chr>     <chr>    <fct>  <int> <fct>    <int>
 1 aardsda01 David     Aardsma  R       2004 SFN     300000
 2 aardsda01 David     Aardsma  R       2007 CHA     387500
 3 aardsda01 David     Aardsma  R       2008 BOS     403250
 4 aardsda01 David     Aardsma  R       2009 SEA     419000
 5 aardsda01 David     Aardsma  R       2010 SEA    2750000
 6 aardsda01 David     Aardsma  R       2011 SEA    4500000
 7 aardsda01 David     Aardsma  R       2012 NYA     500000
 8 aasedo01  Don       Aase     R       1986 BAL     600000
 9 aasedo01  Don       Aase     R       1987 BAL     625000
10 aasedo01  Don       Aase     R       1988 BAL     675000
# ℹ 26,418 more rows
…
The key gets duplicated for each pairwise combination.

Challenge 1

Reshape the us_rent_income tibble (included in {tidyverse}) so that each row represents a single US state (Hint: Variables should be something like: GEOID, NAME, estimate_income, estimate_rent, moe_income, and moe_rent)

Click here for the answer key

us_rent_income |> 
  pivot_wider(
    names_from = variable, 
    values_from = c(estimate, moe)
  )
## # A tibble: 52 × 6
##    GEOID NAME                 estimate_income estimate_rent moe_income moe_rent
##    <chr> <chr>                          <dbl>         <dbl>      <dbl>    <dbl>
##  1 01    Alabama                        24476           747        136        3
##  2 02    Alaska                         32940          1200        508       13
##  3 04    Arizona                        27517           972        148        4
##  4 05    Arkansas                       23789           709        165        5
##  5 06    California                     29454          1358        109        3
##  6 08    Colorado                       32401          1125        109        5
##  7 09    Connecticut                    35326          1123        195        5
##  8 10    Delaware                       31560          1076        247       10
##  9 11    District of Columbia           43198          1424        681       17
## 10 12    Florida                        25952          1077         70        3
## # ℹ 42 more rows
…
